{
    "_id":"c-59",
    "_parentId":"b-59",
    "_type":"component",
    "_component":"graphicAnimation",
    "_classes":"",
    "_layout":"full",
    "title":"Graphic Animation Component",
    "displayTitle":"Graphic Animation Component",
    "body":"Now that you know the special ingredients of conversion ads, we'll show you how they blend together by using an example.",
    "animation":"",
    "delay": "1500",
    "_graphicTop": {
        "alt": "alt text",
        "src": "course/en/images/canvasimage2.png",
        "topText": "",
        "topTextMaxWidth": "",
        "topTextVerticleAlign": "",
        "midText": "",
        "midTextMaxWidth": "",
        "midTextVerticleAlign": "",
        "bottomText": "",
        "bottomTextMaxWidth": "",
        "bottomTextVerticleAlign": "",
        "padding": "",
        "maxWidth": ""
    },
    "_graphicBottom": {
        "alt": "alt text",
        "src": "course/en/images/canvasimage1.png",
        "topText": "Conversion source",
        "topTextMaxWidth": "45%",
        "topTextVerticleAlign": "10%",
        "midText": "Conversion event",
        "midTextMaxWidth": "40%",
        "midTextVerticleAlign": "27%",
        "bottomText": "Facebook pixel, app event, or both",
        "bottomTextMaxWidth": "30%",
        "bottomTextVerticleAlign": "45%",
        "padding": "0 24px",
        "maxWidth": "50%"
    },
    "fontSize":"2vmin",
    "fontColor":"#4281ff",
    "instruction":"",
    "_pageLevelProgress": {
        "_isEnabled": false
    }
}
