{
    "_id":"c-55",
    "_parentId":"b-55",
    "_type":"component",
    "_component":"twoColumn",
    "_classes":"",
    "_layout":"full",
    "title":"2 columns",
    "displayTitle":"Adjustable 2 column component",
    "body":"Adjustable 2 column component",
    "instruction":"",
    "text":"This is an adjustable width 2 column component",
    "fontSize":"4vmin",
    "lineHeight":"",
    "fontColor":"#ffffff",
    "leftColumnWidth": "65%",
    "rightColumnWidth": "35%",
    "borderColor": "#4267b2",
    "borderRadius": "6px",
    "text": "siahf falhf l hlg ahrlghreghierlgh  hraghae;g he ghe gheir ghre gehrg heirg ehr",
    "_graphic": {
        "alt": "alt text",
        "src": "course/en/images/singletag.png",
        "attribution":"Copyright © 2017"
    }
}
